(footprint "PinHoles_1x30_P2.54mm" (version 20221018) (generator pcbnew)
  (layer "F.Cu")
  (attr through_hole)
  (fp_text reference "REF**" (at 0.254 -6.326 unlocked) (layer "F.SilkS") hide
      (effects (font (size 1 1) (thickness 0.1)))
    (tstamp a2763703-0303-4ff9-b1ce-a63418d77166)
  )
  (fp_text value "PinHoles_1x30_P2.54mm" (at 0.254 -4.826 unlocked) (layer "F.Fab") hide
      (effects (font (size 1 1) (thickness 0.15)))
    (tstamp afd13ad7-742a-4902-bccf-b3e5d0d1144e)
  )
  (fp_text user "${REFERENCE}" (at -0.06 36.83 90) (layer "F.Fab") hide
      (effects (font (size 1 1) (thickness 0.15)))
    (tstamp 14a38437-db3a-4e2c-a529-eefd72cfd953)
  )
  (fp_text user "${REFERENCE}" (at 0.254 -3.326 unlocked) (layer "F.Fab") hide
      (effects (font (size 1 1) (thickness 0.15)))
    (tstamp b4e55e4d-1dde-491b-a9a5-5d054215db08)
  )
  (pad "1" thru_hole circle (at -0.06 0) (size 1.7 1.7) (drill 1) (layers "*.Cu" "*.Mask") (tstamp 744c05c6-c2ef-44d8-bb12-7d69b46bea43))
  (pad "2" thru_hole oval (at -0.06 2.54) (size 1.7 1.7) (drill 1) (layers "*.Cu" "*.Mask") (tstamp 02967a44-27ca-4895-a37d-236e19c3cdea))
  (pad "3" thru_hole oval (at -0.06 5.08) (size 1.7 1.7) (drill 1) (layers "*.Cu" "*.Mask") (tstamp c42c16cf-949d-46b3-a53d-8438b8162b80))
  (pad "4" thru_hole oval (at -0.06 7.62) (size 1.7 1.7) (drill 1) (layers "*.Cu" "*.Mask") (tstamp cd3f2ede-bc16-405b-9fa4-565c6dfc8342))
  (pad "5" thru_hole oval (at -0.06 10.16) (size 1.7 1.7) (drill 1) (layers "*.Cu" "*.Mask") (tstamp 56947e91-b0f0-4d20-8975-2910234a9f9b))
  (pad "6" thru_hole oval (at -0.06 12.7) (size 1.7 1.7) (drill 1) (layers "*.Cu" "*.Mask") (tstamp ac08a70c-fb5e-4da1-9243-8a5408b96ff9))
  (pad "7" thru_hole oval (at -0.06 15.24) (size 1.7 1.7) (drill 1) (layers "*.Cu" "*.Mask") (tstamp df68fe6d-8d7c-4963-b0c7-999a0296548c))
  (pad "8" thru_hole oval (at -0.06 17.78) (size 1.7 1.7) (drill 1) (layers "*.Cu" "*.Mask") (tstamp 14365e54-9014-44e8-b460-9967bbd64545))
  (pad "9" thru_hole oval (at -0.06 20.32) (size 1.7 1.7) (drill 1) (layers "*.Cu" "*.Mask") (tstamp eb397f7c-a50c-4f81-84a7-d6449589e176))
  (pad "10" thru_hole oval (at -0.06 22.86) (size 1.7 1.7) (drill 1) (layers "*.Cu" "*.Mask") (tstamp 3c81068c-9d99-4728-8027-81e1f3ef233c))
  (pad "11" thru_hole oval (at -0.06 25.4) (size 1.7 1.7) (drill 1) (layers "*.Cu" "*.Mask") (tstamp 34a6ad42-7dec-42f1-91d2-fc9e4e37e6eb))
  (pad "12" thru_hole oval (at -0.06 27.94) (size 1.7 1.7) (drill 1) (layers "*.Cu" "*.Mask") (tstamp 5db46781-1dc9-407e-a27e-b0e0c090d297))
  (pad "13" thru_hole oval (at -0.06 30.48) (size 1.7 1.7) (drill 1) (layers "*.Cu" "*.Mask") (tstamp 4d09dc2c-88fa-4222-9e9d-fa7aa5e5ba74))
  (pad "14" thru_hole oval (at -0.06 33.02) (size 1.7 1.7) (drill 1) (layers "*.Cu" "*.Mask") (tstamp 2be18d1c-7c5a-46bd-ab84-233078cb7528))
  (pad "15" thru_hole oval (at -0.06 35.56) (size 1.7 1.7) (drill 1) (layers "*.Cu" "*.Mask") (tstamp f8e731fc-57d1-4a29-b341-dbac8f0e4364))
  (pad "16" thru_hole oval (at -0.06 38.1) (size 1.7 1.7) (drill 1) (layers "*.Cu" "*.Mask") (tstamp 5537d6e5-390e-4040-8e12-6303c369827c))
  (pad "17" thru_hole oval (at -0.06 40.64) (size 1.7 1.7) (drill 1) (layers "*.Cu" "*.Mask") (tstamp 03af4f3a-2b66-48f3-8570-cd7e7532d9a6))
  (pad "18" thru_hole oval (at -0.06 43.18) (size 1.7 1.7) (drill 1) (layers "*.Cu" "*.Mask") (tstamp c98faf22-71d2-46ee-8346-ac81ff0b9ee1))
  (pad "19" thru_hole oval (at -0.06 45.72) (size 1.7 1.7) (drill 1) (layers "*.Cu" "*.Mask") (tstamp 3bbeb4c9-858a-4eda-a5c8-26dc0988f0b3))
  (pad "20" thru_hole oval (at -0.06 48.26) (size 1.7 1.7) (drill 1) (layers "*.Cu" "*.Mask") (tstamp 427cc5f9-e556-4a7b-b7dc-531b0174b6ae))
  (pad "21" thru_hole oval (at -0.06 50.8) (size 1.7 1.7) (drill 1) (layers "*.Cu" "*.Mask") (tstamp a1619690-9a8c-4c83-93ec-75110dbc2ab2))
  (pad "22" thru_hole oval (at -0.06 53.34) (size 1.7 1.7) (drill 1) (layers "*.Cu" "*.Mask") (tstamp 83dfd671-5a74-4276-a085-2d2602c4a348))
  (pad "23" thru_hole oval (at -0.06 55.88) (size 1.7 1.7) (drill 1) (layers "*.Cu" "*.Mask") (tstamp 15050338-d1c0-48ef-be7d-aed8c018b3a1))
  (pad "24" thru_hole oval (at -0.06 58.42) (size 1.7 1.7) (drill 1) (layers "*.Cu" "*.Mask") (tstamp 18e9e466-b57b-42f1-8c07-3e4f440d1e70))
  (pad "25" thru_hole oval (at -0.06 60.96) (size 1.7 1.7) (drill 1) (layers "*.Cu" "*.Mask") (tstamp 7b007d4b-fa60-4114-9427-4b711e2c71b5))
  (pad "26" thru_hole oval (at -0.06 63.5) (size 1.7 1.7) (drill 1) (layers "*.Cu" "*.Mask") (tstamp 79bc129e-c617-4475-b075-1de51e64beb7))
  (pad "27" thru_hole oval (at -0.06 66.04) (size 1.7 1.7) (drill 1) (layers "*.Cu" "*.Mask") (tstamp 14a2ac7e-b6a1-4922-be57-7f0742a5a327))
  (pad "28" thru_hole oval (at -0.06 68.58) (size 1.7 1.7) (drill 1) (layers "*.Cu" "*.Mask") (tstamp b27f6a26-b484-43dc-9962-4fdf55271385))
  (pad "29" thru_hole oval (at -0.06 71.12) (size 1.7 1.7) (drill 1) (layers "*.Cu" "*.Mask") (tstamp a43023b3-efd5-461d-ad9b-689f5c4d386d))
  (pad "30" thru_hole oval (at -0.06 73.66) (size 1.7 1.7) (drill 1) (layers "*.Cu" "*.Mask") (tstamp 4eb3b252-1a62-4664-b45a-9131a2416c6c))
)
