(footprint "PinHoles_1x08_P2.64mm" (version 20221018) (generator pcbnew)
  (layer "F.Cu")
  (attr through_hole)
  (fp_text reference "REF**" (at 0 -5.54 unlocked) (layer "F.SilkS") hide
      (effects (font (size 1 1) (thickness 0.1)))
    (tstamp 359fd19d-c05b-46b3-8b16-8993ac665b7e)
  )
  (fp_text value "PinHoles_1x08_P2.64mm" (at 0 -4.04 unlocked) (layer "F.Fab") hide
      (effects (font (size 1 1) (thickness 0.15)))
    (tstamp a8df5371-2ba1-43c5-affe-b98fe7ace4c9)
  )
  (fp_text user "${REFERENCE}" (at 0 10.16 90) (layer "F.Fab") hide
      (effects (font (size 1 1) (thickness 0.15)))
    (tstamp 1c2d1a32-ca47-4d81-b9fa-881ea25db8c7)
  )
  (pad "1" thru_hole circle (at 0 0) (size 1.7 1.7) (drill 1) (layers "*.Cu" "*.Mask") (tstamp a039121c-4f4d-446e-99c5-78655ff294c7))
  (pad "2" thru_hole oval (at 0 2.54) (size 1.7 1.7) (drill 1) (layers "*.Cu" "*.Mask") (tstamp cdc34567-352f-4d50-81ee-34fb18828d29))
  (pad "3" thru_hole oval (at 0 5.08) (size 1.7 1.7) (drill 1) (layers "*.Cu" "*.Mask") (tstamp 1918ffa3-ef1e-4949-b604-8feb1c41227b))
  (pad "4" thru_hole oval (at 0 7.62) (size 1.7 1.7) (drill 1) (layers "*.Cu" "*.Mask") (tstamp d1a4aade-2b2d-4b2c-b1d5-562cc966a0fd))
  (pad "5" thru_hole oval (at 0 10.16) (size 1.7 1.7) (drill 1) (layers "*.Cu" "*.Mask") (tstamp 91786039-7802-4fe8-a78c-ba1217fb18cf))
  (pad "6" thru_hole oval (at 0 12.7) (size 1.7 1.7) (drill 1) (layers "*.Cu" "*.Mask") (tstamp 26f59ca8-70a4-4cad-8f76-556dd23f8281))
  (pad "7" thru_hole oval (at 0 15.24) (size 1.7 1.7) (drill 1) (layers "*.Cu" "*.Mask") (tstamp 238e50be-06c4-44a5-bf9c-bc0af62ebb32))
  (pad "8" thru_hole oval (at 0 17.78) (size 1.7 1.7) (drill 1) (layers "*.Cu" "*.Mask") (tstamp 384625b7-bf74-4e81-b55e-91e0416d8010))
)
